<?xml version="1.0" ?>
<!-- TODO:
	- needs further paramter adjustment from realsense r200 to d435
	- cameras aside from depth see d435 meshes
	- currently and framerate are set to max,adust to actual settings
-->
<robot xmlns:xacro="http://ros.org/wiki/xacro">
<xacro:macro name="sensor_d435" params="prefix parent *origin robot_namespace:=/">
    <xacro:property name="M_PI" value="3.1415926535897931" />


    <!-- The following values are approximate, and the camera node
     publishing TF values with actual calibrated camera extrinsic values -->
    <xacro:property name="d435_cam_left_ir_to_depth_offset" value="0"/>
    <xacro:property name="d435_cam_left_ir_to_right_ir_offset" value="-0.050"/>
    <xacro:property name="d435_cam_left_ir_to_color_offset" value="0.015"/>
  
    <!-- The following values model the aluminum peripherial case for the
  	D435 camera, with the camera joint represented by the actual 
  	peripherial camera tripod mount -->
    <xacro:property name="d435_cam_width" value="0.090"/>
    <xacro:property name="d435_cam_height" value="0.025"/>
    <xacro:property name="d435_cam_depth" value="0.02505"/>
    <xacro:property name="d435_cam_weight" value="0.072"/>
    <xacro:property name="d435_cam_mount_from_center_offset" value="0.0149"/>
 
    <!-- The following offset is relative the the physical D435 camera peripherial
  	camera tripod mount -->
    <xacro:property name="d435_cam_depth_px" value="${d435_cam_mount_from_center_offset}"/>
    <xacro:property name="d435_cam_depth_py" value="0.0175"/>
    <xacro:property name="d435_cam_depth_pz" value="${d435_cam_height/2}"/>

    <material name="aluminum">
	  <color rgba="0.5 0.5 0.5 1"/>
    </material>

    <!-- camera body, with origin at bottom screw mount -->
    <joint name="camera_joint" type="fixed">
      <xacro:insert_block name="origin" />
      <parent link="${parent}"/>
      <child link="${prefix}camera_bottom_screw_frame" />
    </joint>
    <link name="camera_bottom_screw_frame"/>

    <joint name="camera_link_joint" type="fixed">
      <origin xyz="0 ${d435_cam_depth_py} ${d435_cam_depth_pz}" rpy="0 0 0"/>
      <parent link="${prefix}camera_bottom_screw_frame"/>
      <child link="${prefix}camera_link" />
    </joint> 

    <!-- Camera link -->
    <link name="${prefix}camera_link">
      <visual>
      <origin xyz="${d435_cam_mount_from_center_offset} ${-d435_cam_depth_py} 0" rpy="${M_PI/2} 0 ${M_PI/2}"/>
        <geometry>
          <!-- <box size="${d435_cam_width} ${d435_cam_height} ${d435_cam_depth}"/> -->
          <mesh filename="package://smb_mt_description/meshes/accessories/d435.dae" />
        </geometry>
        <material name="aluminum"/>
      </visual>
      <collision>
        <origin xyz="0 ${-d435_cam_depth_py} 0" rpy="0 0 0"/>
        <geometry>
        <box size="${d435_cam_depth} ${d435_cam_width} ${d435_cam_height}"/>
        </geometry>
      </collision>
      <inertial>
        <mass value="${d435_cam_weight}" />
        <origin xyz="0 0 0" />
        <inertia ixx="${d435_cam_weight*(d435_cam_width*d435_cam_width+d435_cam_height*d435_cam_height)/12}" 
		 ixy="0.0" 
		 ixz="0.0" 
		 iyy="${d435_cam_weight*(d435_cam_depth*d435_cam_depth+d435_cam_height*d435_cam_height)/12}" 
		 iyz="0.0" 
		 izz="${d435_cam_weight*(d435_cam_depth*d435_cam_depth+d435_cam_width*d435_cam_width)/12}" />
      </inertial>
    </link>

        <gazebo reference="${prefix}camera_link">
            <material>Gazebo/White</material>
        </gazebo>

    <!-- Virtual links representing the cameras positons and orientations-->
    <link name="${prefix}color" />
    <link name="${prefix}depth" />
    <link name="${prefix}ired1" />
    <link name="${prefix}ired2" />

    <!-- Joints positioning the virtual links with respect to the camera main link-->
    <joint name="${prefix}color_joint" type="fixed">
        <parent link="${prefix}camera_link" />
        <child link="${prefix}color" />
        <!-- The default position is change since in Rviz the cloud depth axis is Z not X-->
        <origin xyz="0 ${d435_cam_left_ir_to_color_offset} 0" rpy="${M_PI/2} ${M_PI} ${M_PI/2}"/>
    </joint>

    <joint name="${prefix}depth_joint" type="fixed">
        <parent link="${prefix}camera_link" />
        <child link="${prefix}depth" />
        <origin xyz="0 ${d435_cam_left_ir_to_depth_offset} 0" rpy="0 0 0"/>
    </joint>

    <joint name="${prefix}ired1_joint" type="fixed">
        <parent link="${prefix}camera_link" />
        <child link="${prefix}ired1" />
        <origin xyz="0 ${d435_cam_left_ir_to_right_ir_offset} 0" rpy="0 0 0"/>
    </joint>

    <joint name="${prefix}ired2_joint" type="fixed">
        <parent link="${prefix}camera_link" />
        <child link="${prefix}ired2" />
        <origin xyz="0 0 0" rpy="0 0 0"/>
    </joint>

    <!-- Gazebo requires the realsense_gazebo_plugin package -->
    <gazebo>
        <plugin name="${prefix}d435" filename="librealsense_gazebo_plugin.so"/>
	    <robotNamespace>${robot_namespace}</robotNamespace>
    </gazebo>

    <gazebo reference="${prefix}camera_link">

        <sensor name="color" type="camera">
            <pose frame="">0 ${d435_cam_left_ir_to_color_offset} 0.2 0 0 0</pose>
            <camera name="${prefix}camera_link">
            <horizontal_fov>${69.4/180*M_PI}</horizontal_fov>
            <image>
                <width>1280</width>
                <height>720</height>
                <format>RGB_INT8</format>
            </image>
            <clip>
                <near>0.1</near>
                <far>100</far>
            </clip>
            <noise>
                <type>gaussian</type>
                <mean>0.0</mean>
                <stddev>0.007</stddev>
            </noise>
            </camera>
            <always_on>1</always_on>
            <update_rate>30</update_rate>
            <visualize>0</visualize>
        </sensor>
        <sensor name="ired1" type="camera">
            <pose frame="">0 ${d435_cam_left_ir_to_right_ir_offset} 0 0 0 0</pose>
            <camera name="${prefix}camera_link">
            <horizontal_fov>${91.2/180*M_PI}</horizontal_fov>
            <image>
                <width>640</width>
                <height>480</height>
                <format>L_INT8</format>
            </image>
            <clip>
                <near>0.1</near>
                <far>100</far>
            </clip>
            <noise>
                <type>gaussian</type>
                <mean>0.0</mean>
                <stddev>0.05</stddev>
            </noise>
            </camera>
            <always_on>1</always_on>
            <update_rate>30</update_rate>
            <visualize>0</visualize>
        </sensor>
        <sensor name="ired2" type="camera">
            <pose frame="">0 0 0 0 0 0</pose>
            <camera name="${prefix}camera_link">
            <horizontal_fov>${91.2/180*M_PI}</horizontal_fov>
            <image>
                <width>640</width>
                <height>480</height>
                <format>L_INT8</format>
            </image>
            <clip>
                <near>0.1</near>
                <far>100</far>
            </clip>
            <noise>
                <type>gaussian</type>
                <mean>0.0</mean>
                <stddev>0.05</stddev>
            </noise>
            </camera>
            <always_on>1</always_on>
            <update_rate>30</update_rate>
            <visualize>0</visualize>
        </sensor>
        <sensor name="depth" type="depth">
            <pose frame="">0 ${d435_cam_left_ir_to_depth_offset} 0 0 0 0</pose>
            <camera name="${prefix}camera_link">
            <horizontal_fov>${87/180*M_PI}</horizontal_fov>
            <image>
                    <width>640</width>
                    <height>480</height>
            </image>
            <clip>
                    <near>0.2</near>
                    <far>10</far>
            </clip>
            <noise>
                    <type>gaussian</type>
                    <mean>0.0</mean>
                    <stddev>0.100</stddev>
            </noise>
            </camera>
            <always_on>1</always_on>
            <update_rate>30</update_rate>
            <visualize>0</visualize>
        </sensor>
    </gazebo>

</xacro:macro>
</robot>
