<?xml version="1.0"?>
<!--
Copyright (c) 2013, Goncalo Cabrita, ISR University of Coimbra
Copyright (c) 2016, Clearpath Robotics
All rights reserved.

Redistribution and use in source and binary forms, with or without
modification, are permitted provided that the following conditions are met:
    * Redistributions of source code must retain the above copyright
      notice, this list of conditions and the following disclaimer.
    * Redistributions in binary form must reproduce the above copyright
      notice, this list of conditions and the following disclaimer in the
      documentation and/or other materials provided with the distribution.
    * Neither the name of Clearpath Robotics nor the
      names of its contributors may be used to endorse or promote products
      derived from this software without specific prior written permission.

THIS SOFTWARE IS PROVIDED BY THE COPYRIGHT HOLDERS AND CONTRIBUTORS "AS IS" AND
ANY EXPRESS OR IMPLIED WARRANTIES, INCLUDING, BUT NOT LIMITED TO, THE IMPLIED
WARRANTIES OF MERCHANTABILITY AND FITNESS FOR A PARTICULAR PURPOSE ARE
DISCLAIMED. IN NO EVENT SHALL THE COPYRIGHT HOLDERS BE LIABLE FOR ANY
DIRECT, INDIRECT, INCIDENTAL, SPECIAL, EXEMPLARY, OR CONSEQUENTIAL DAMAGES
(INCLUDING, BUT NOT LIMITED TO, PROCUREMENT OF SUBSTITUTE GOODS OR SERVICES;
LOSS OF USE, DATA, OR PROFITS; OR BUSINESS INTERRUPTION) HOWEVER CAUSED AND
ON ANY THEORY OF LIABILITY, WHETHER IN CONTRACT, STRICT LIABILITY, OR TORT
(INCLUDING NEGLIGENCE OR OTHERWISE) ARISING IN ANY WAY OUT OF THE USE OF THIS
SOFTWARE, EVEN IF ADVISED OF THE POSSIBILITY OF SUCH DAMAGE.
-->

<robot xmlns:xacro="http://ros.org/wiki/xacro" name="kinect_camera">

  <xacro:macro name="kinect_camera" params="prefix:=camera robot_namespace:=/">
    <!-- Create kinect reference frame -->
    <!-- Add mesh for kinect -->
    <link name="${prefix}_link">
      <origin xyz="0 0 0" rpy="0 0 0"/>
      <visual>
        <origin xyz="0 0 0" rpy="0 0 ${M_PI/2}"/>
        <geometry>
          <mesh filename="package://smb_mt_description/meshes/accessories/kinect.dae" />
        </geometry>
      </visual>
      <collision>
        <geometry>
          <box size="0.07 0.3 0.09"/>
        </geometry>
      </collision>
    </link>

    <joint name="${prefix}_optical_joint" type="fixed">
      <origin xyz="0 0 0" rpy="-1.5708 0 -1.5708"/>
      <parent link="${prefix}_link"/>
      <child link="${prefix}_frame_optical"/>
    </joint>

    <link name="${prefix}_frame_optical"/>

    <gazebo reference="${prefix}_link">
      <sensor type="depth" name="${prefix}">
        <always_on>true</always_on>
        <update_rate>20.0</update_rate>
        <camera>
          <horizontal_fov>${60.0*M_PI/180.0}</horizontal_fov>
          <image>
            <format>R8G8B8</format>
            <width>640</width>
            <height>480</height>
          </image>
          <clip>
            <near>0.05</near>
            <far>8.0</far>
          </clip>
        </camera>
        <plugin name="kinect_${prefix}_controller" filename="libgazebo_ros_openni_kinect.so">
          <cameraName>${prefix}</cameraName>
          <alwaysOn>true</alwaysOn>
          <updateRate>10</updateRate>
          <imageTopicName>rgb/image_raw</imageTopicName>
          <depthImageTopicName>depth/image_raw</depthImageTopicName>
          <pointCloudTopicName>depth/points</pointCloudTopicName>
          <cameraInfoTopicName>rgb/camera_info</cameraInfoTopicName>
          <depthImageCameraInfoTopicName>depth/camera_info</depthImageCameraInfoTopicName>
          <frameName>${prefix}_frame_optical</frameName>
          <baseline>0.1</baseline>
          <distortion_k1>0.0</distortion_k1>
          <distortion_k2>0.0</distortion_k2>
          <distortion_k3>0.0</distortion_k3>
          <distortion_t1>0.0</distortion_t1>
          <distortion_t2>0.0</distortion_t2>
          <pointCloudCutoff>0.4</pointCloudCutoff>
          <robotNamespace>${robot_namespace}</robotNamespace>
        </plugin>
      </sensor>
    </gazebo>
  </xacro:macro>
</robot>
