<?xml version="1.0"?>

<!-- TODO:
	- adjust weights
	- adjust inertia closer to robot
-->

<robot name="smb" xmlns:xacro="http://ros.org/wiki/xacro">

  <xacro:arg name="lidar_enabled" default="false" />

  <xacro:arg name="camera_enabled" default="false" />
  <xacro:arg name="kinect_xyz" default="$(optenv SMB_KINECT_XYZ 0 0 0)" />
  <xacro:arg name="kinect_rpy" default="$(optenv SMB_KINECT_RPY 0 0.18 3.14)" />

  <xacro:arg name="robot_namespace" default="/" />
<xacro:arg name="urdf_extras" default="empty.urdf" />

  <!-- Included URDF/XACRO Files -->
  <xacro:include filename="$(find smb_mt_description)/urdf/wheel.urdf.xacro" />
  <xacro:include filename="$(find smb_mt_description)/urdf/smb_utils.urdf.xacro" />

  <xacro:include filename="$(find smb_mt_description)/urdf/accessories/d435_frames.urdf.xacro"/>
  <xacro:include filename="$(find smb_mt_description)/urdf/accessories/RS-LiDAR-16_frames.urdf.xacro"/>

  <xacro:property name="M_PI" value="3.14159"/>

  <!-- properties camera link -->
  <xacro:property name="camera_box" value="0.05" /> <!-- Size of square 'camera' box -->

  <!-- Base Size -->
  <xacro:property name="base_x_size" value="0.610" />
  <xacro:property name="base_y_size" value="0.406" />
  <xacro:property name="base_z_size" value="0.203" />
  <xacro:property name="base_mass" value="40" />

  <!-- Base mount Size -->
  <xacro:property name="base_mount_x_1_size" value="0.610" />
  <xacro:property name="base_mount_y_1_size" value="0.437" />
  <xacro:property name="base_mount_z_1_size" value="0.045" />
  <xacro:property name="base_mount_x_2_size" value="0.534" />
  <xacro:property name="base_mount_y_2_size" value="0.437" />
  <xacro:property name="base_mount_z_2_size" value="0.136" />
  <xacro:property name="base_mount_mass" value="20" />

  <!-- Lidar Mount Size -->
<!--
  <xacro:property name="lidar_mount_height" value="0.142" />
  <xacro:property name="lidar_mount_radius" value="0.08" />
-->
  <xacro:property name="lidar_mount_x_size" value="0.110" />
  <xacro:property name="lidar_mount_y_size" value="0.158" />
  <xacro:property name="lidar_mount_z_size" value="0.045" />
  <xacro:property name="lidar_mount_mass" value="0.5" />

  <!-- Camera Mount Size -->
  <xacro:property name="camera_mount_x_size" value="0.067" />
  <xacro:property name="camera_mount_y_size" value="0.180" />
  <xacro:property name="camera_mount_z_size" value="0.112" />
  <xacro:property name="camera_mount_mass" value="" />


  <!-- Wheel Properties -->
  <xacro:property name="wheel_width" value="0.155" />
  <xacro:property name="wheel_radius" value="0.195" />
  <xacro:property name="wheel_mass" value="5" />

  <!-- Wheel Mounting Positions -->
  <xacro:property name="wheelclearance" value="0.038"/>
  <xacro:property name="wheelbase" value="0.420" />
  <xacro:property name="track" value="${base_y_size+2*wheelclearance+wheel_width}" />
  <xacro:property name="wheel_vertical_offset" value="${-base_z_size/2+0.057}" />

  <!-- Base link -->
  <link name="base_link">
    <visual>
      <origin xyz="0 0 0" rpy="0 0 0" />
      <geometry>
        <mesh filename="package://smb_mt_description/meshes/SMB_base_v2.dae" /> 
      </geometry>
    </visual>
    <collision>
      <origin xyz="0 0 0" rpy="0 0 0" />
      <geometry>
        <box size="${base_x_size} ${base_y_size} ${base_z_size}"/>
      </geometry>
    </collision>
  </link>

        <gazebo reference="base_link">
            <material>Gazebo/White</material>
        </gazebo>


  <!-- Base footprint is on the ground under the robot -->
  <link name="base_footprint"/>

  <joint name="base_footprint_joint" type="fixed">
    <origin xyz="0 0 ${wheel_vertical_offset - wheel_radius}" rpy="0 0 0" />
    <parent link="base_link" />
    <child link="base_footprint" />
  </joint>

  <!-- Interial link stores the robot's inertial information -->
  <link name="inertial_link">
    <inertial>
        <origin xyz="0 0 0" rpy="0 0 0"/>
        <mass value="${base_mass}"/> 
        <box_inertia m="${base_mass}" 
                     x="${base_x_size}" 
                     y="${base_y_size}"
                     z="${base_z_size}"/>
    </inertial>
  </link>

  <joint name="inertial_joint" type="fixed">
    <origin xyz="0 0 0" rpy="0 0 0" />
    <parent link="base_link" />
    <child link="inertial_link" />
  </joint>

  <!-- Base mount link -->
  <link name="base_mount_link">
    <inertial>
        <origin xyz="0 0 0" rpy="0 0 0"/>
        <mass value="${base_mount_mass}"/> 
        <box_inertia m="${base_mount_mass}" 
                     x="${base_mount_x_1_size}" 
                     y="${base_mount_y_1_size}"
                     z="${base_mount_z_1_size + base_mount_z_2_size}"/>
    </inertial>
    <visual>
      <origin xyz="0 0 ${(base_mount_z_1_size+base_mount_z_2_size)/2-0.102}" rpy="0 0 0" />
      <geometry>
        <mesh filename="package://smb_mt_description/meshes/SMB_base_mount.dae" /> 
      </geometry>
    </visual>
    <collision>
      <origin xyz="-0.005 0 ${-base_mount_z_2_size/2}" rpy="0 0 0" />
      <geometry>
        <box size="${base_mount_x_1_size} ${base_mount_y_1_size} ${base_mount_z_1_size}"/> 
      </geometry>
    </collision>
    <collision>
      <origin xyz="${-(base_mount_x_1_size-base_mount_x_2_size)/2} 0 ${base_mount_z_1_size/2}" rpy="0 0 0" />
      <geometry>
        <box size="${base_mount_x_2_size} ${base_mount_y_2_size} ${base_mount_z_2_size}"/> 
      </geometry>
    </collision>
  </link>

  <joint name="base_mount_joint" type="fixed">
    <origin xyz="0 0 ${(base_z_size + base_mount_z_1_size + base_mount_z_2_size)/2}" rpy="0 0 0" />
    <parent link="base_link" />
    <child link="base_mount_link" />
  </joint>

        <gazebo reference="base_mount_link">
            <material>Gazebo/White</material>
        </gazebo>

  <!-- IMU Link is the standard mounting position for the UM6 IMU.-->
  <!-- Can be modified with environment variables in /etc/ros/setup.bash -->
  <link name="imu_link"/>
  <joint name="imu_joint" type="fixed">
    <origin xyz="$(optenv SMB_IMU_XYZ 0 0 0)" rpy="$(optenv SMB_IMU_RPY 0 -1.5708 3.1416)" />
    <parent link="base_link" />
    <child link="imu_link" />
  </joint>
  <gazebo reference="imu_link">
  </gazebo>

  <!-- SMB wheel macros -->
  <xacro:smb_wheel wheel_prefix="front_left">
    <origin xyz="${wheelbase/2} ${track/2} ${wheel_vertical_offset}" rpy="0 0 0" />
  </xacro:smb_wheel>
  <xacro:smb_wheel wheel_prefix="front_right">
    <origin xyz="${wheelbase/2} ${-track/2} ${wheel_vertical_offset}" rpy="0 0 0" />
  </xacro:smb_wheel>
  <xacro:smb_wheel wheel_prefix="rear_left">
    <origin xyz="${-wheelbase/2} ${track/2} ${wheel_vertical_offset}" rpy="0 0 0" />
  </xacro:smb_wheel>
  <xacro:smb_wheel wheel_prefix="rear_right">
    <origin xyz="${-wheelbase/2} ${-track/2} ${wheel_vertical_offset}" rpy="0 0 0" />
  </xacro:smb_wheel>

  <xacro:if value="$(arg lidar_enabled)">

  <!-- lidar mount link -->
  <link name="lidar_mount_link">
    <inertial>
      <mass value="${lidar_mount_mass}" />
      <origin xyz="0 0 0" />
      <box_inertia m="${lidar_mount_mass}" 
                   x="${lidar_mount_x_size}" 
                   y="${lidar_mount_y_size}"
                   z="${lidar_mount_z_size}"/>
<!--
      <cylinder_inertia m="${lidar_mount_mass}" r="${lidar_mount_radius}"
      h="${lidar_mount_height}"/>
-->
    </inertial>
    <visual>
      <origin xyz="0 0 ${-lidar_mount_z_size/2}" rpy="0 0 0" />
      <geometry>
        <mesh filename="package://smb_mt_description/meshes/SMB_lidar_mount_v2.dae" /> 
      </geometry>
      <material name="green"/>
    </visual>
    <collision>
      <origin xyz="0 0 0" rpy="0 0 0" />
      <geometry>
        <box size="${lidar_mount_x_size} ${lidar_mount_y_size} ${lidar_mount_z_size}"/> 
        <!--<cylinder length="${lidar_mount_height}" radius="${lidar_mount_radius}"/> -->
      </geometry>
    </collision>
  </link>

        <gazebo reference="lidar_mount_link">
            <material>Gazebo/Grey</material>
        </gazebo>

  <joint name="lidar_mount_joint" type="fixed">
    <origin xyz="0 0 ${(base_mount_z_1_size + base_mount_z_2_size + lidar_mount_z_size)/2}" rpy="0 0 0" />
    <!--<origin xyz="0 0 ${(base_mount_z_size + lidar_mount_height)/2}" rpy="0 0 0" />-->
    <parent link="base_mount_link" />
    <child link="lidar_mount_link" />
  </joint>

  <RS-LiDAR-16 parent="lidar_mount_link" name="rs_lidar" topic="/rs_lidar_points" hz="10" lasers="16" samples="2000" collision_range="0.4" min_range="0.2" max_range="150.0" noise="0.008" min_angle="-${M_PI}" max_angle="${M_PI}" gpu="false">
    <origin xyz="0 0 ${lidar_mount_z_size/2}" rpy="0 0 0" />
    <!--<origin xyz="0 0 ${lidar_mount_height/2}" rpy="0 0 0" />-->
  </RS-LiDAR-16>

  </xacro:if>

<!-- camera -->
  <xacro:if value="$(arg camera_enabled)">

<!-- realsense d435 -->
     <joint name="camera_mount_joint" type="fixed">
    	<origin xyz="${(base_mount_x_1_size-camera_mount_x_size)/2-0.01} 0 ${(base_mount_z_1_size-base_mount_z_2_size)/2}" rpy="0 0 0"/>
      	<parent link="base_mount_link"/>
    	<child link="camera_mount_link"/>
     </joint>

    <link name="camera_mount_link">
      <origin xyz="0 0 0" rpy="0 0 0"/>
      <visual>
        <origin xyz="0 0 0" rpy="0 0 0"/>
        <geometry>
          <mesh filename="package://smb_mt_description/meshes/SMB_realsense_mount_v2.dae" />
        </geometry>
      </visual>
      <collision>
        <geometry>
          <box size="0.180 0.067 0.112"/>
        </geometry>
      </collision>
    </link>

        <gazebo reference="camera_mount_link">
            <material>Gazebo/Grey</material>
        </gazebo>

    <xacro:sensor_d435 parent="base_mount_link">
        <origin xyz="${base_mount_x_1_size/2-0.033} 0 ${(base_mount_z_1_size-base_mount_z_2_size)/2+0.085}" rpy="0 ${40/180*M_PI} 0" />   
    </xacro:sensor_d435>

  </xacro:if>

  <gazebo>
    <plugin name="gazebo_ros_control" filename="libgazebo_ros_control.so">
      <robotNamespace>$(arg robot_namespace)</robotNamespace>
    </plugin>
  </gazebo>

</robot>


