<?xml version="1.0"?>

<robot xmlns:xacro="http://ros.org/wiki/xacro" name="smb_wheel">

	<xacro:macro name="smb_wheel" params="wheel_prefix *joint_pose">
		<link name="${wheel_prefix}_wheel_link">
			<inertial>
				<mass value="${wheel_mass}" />
				<origin xyz="0 0 0" />
				<wheel_inertia m="${wheel_mass}" r="${wheel_radius}" 				h="${wheel_width}"/>
			</inertial>
			<visual>
				<origin xyz="0 0 0" rpy="0 0 0" />
                		<geometry>
                    			<mesh filename="package://smb_mt_description/meshes/SMB_wheel.dae" /> 
                		</geometry>
                		<material name="black"/>
			</visual>
			<collision>
				<origin xyz="0 0 0" rpy="${M_PI/2} 0 0" />
				<geometry>
					<cylinder length="${wheel_width}" radius="${wheel_radius}" />
				</geometry>
			</collision>
		</link>

		<gazebo reference="${wheel_prefix}_wheel_link">
			<mu1 value="10.0"/>
			<mu2 value="10.0"/>
			<kp value="10000000.0" />
			<kd value="1.0" />
			<fdir1 value="1 0 0"/>
            		<minDepth>0.005</minDepth>
            		<maxVel>100.0</maxVel>
            		<material>Gazebo/Black</material>
		</gazebo>

		<joint name="${wheel_prefix}_wheel" type="continuous">
			<parent link="base_link"/>
			<child link="${wheel_prefix}_wheel_link"/>
			<xacro:insert_block name="joint_pose"/>
			<axis xyz="0 1 0" rpy="0 0 0" />
		</joint>

		<transmission name="${wheel_prefix}_wheel_trans" type="SimpleTransmission">
			<type>transmission_interface/SimpleTransmission</type>
			<actuator name="${wheel_prefix}_wheel_motor">
				<mechanicalReduction>1</mechanicalReduction>
			</actuator>
			<joint name="${wheel_prefix}_wheel">
				<hardwareInterface>hardware_interface/VelocityJointInterface</hardwareInterface>
			</joint>
		</transmission>

	</xacro:macro>
</robot>

